%YAML 1.1
%TAG !u! tag:unity3d.com,2011:
--- !u!21 &2100000
Material:
  serializedVersion: 6
  m_ObjectHideFlags: 0
  m_PrefabParentObject: {fileID: 0}
  m_PrefabInternal: {fileID: 0}
  m_Name: ZippyWater2D Jello
  m_Shader: {fileID: 4800000, guid: bdf001f049c52de4ab94ed0d6f7290d0, type: 3}
  m_ShaderKeywords: _EMISSION
  m_LightmapFlags: 0
  m_EnableInstancingVariants: 0
  m_CustomRenderQueue: 3000
  stringTagMap: {}
  disabledShaderPasses: []
  m_SavedProperties:
    serializedVersion: 3
    m_TexEnvs:
    - _BumpMap:
        m_Texture: {fileID: 0}
        m_Scale: {x: 1, y: 1}
        m_Offset: {x: 0, y: 0}
    - _DetailAlbedoMap:
        m_Texture: {fileID: 0}
        m_Scale: {x: 1, y: 1}
        m_Offset: {x: 0, y: 0}
    - _DetailMask:
        m_Texture: {fileID: 0}
        m_Scale: {x: 1, y: 1}
        m_Offset: {x: 0, y: 0}
    - _DetailNormalMap:
        m_Texture: {fileID: 0}
        m_Scale: {x: 1, y: 1}
        m_Offset: {x: 0, y: 0}
    - _EmissionMap:
        m_Texture: {fileID: 0}
        m_Scale: {x: 1, y: 1}
        m_Offset: {x: 0, y: 0}
    - _MainTex:
        m_Texture: {fileID: 2800000, guid: 72317c9ba9e194c46b4371024573d80a, type: 3}
        m_Scale: {x: 4.95, y: 1}
        m_Offset: {x: -0.07, y: 0.27}
    - _MainTex2:
        m_Texture: {fileID: 2800000, guid: 8f19765267ec1e14db1c09396042894a, type: 3}
        m_Scale: {x: 1, y: 1}
        m_Offset: {x: 0, y: 0}
    - _MetallicGlossMap:
        m_Texture: {fileID: 0}
        m_Scale: {x: 1, y: 1}
        m_Offset: {x: 0, y: 0}
    - _NoiseTex:
        m_Texture: {fileID: 0}
        m_Scale: {x: 1, y: 1}
        m_Offset: {x: 0, y: 0}
    - _OcclusionMap:
        m_Texture: {fileID: 0}
        m_Scale: {x: 1, y: 1}
        m_Offset: {x: 0, y: 0}
    - _ParallaxMap:
        m_Texture: {fileID: 0}
        m_Scale: {x: 1, y: 1}
        m_Offset: {x: 0, y: 0}
    m_Floats:
    - EValue: 0.268
    - Light: 0
    - TValue: 0.433
    - TurnToLiquid: 0
    - _Alpha: 0.055
    - _BumpAmt: 10
    - _BumpScale: 1
    - _ClipDown: 0.976
    - _ClipLeft: 0.882
    - _ClipRight: 0.882
    - _ClipUp: 0.425
    - _ColorB: 0
    - _ColorLevel: 0
    - _Cutoff: 0.5
    - _DetailNormalMapScale: 1
    - _DistAmt: 10
    - _Distortion: 1
    - _DstBlend: 0
    - _EdgeSize: 0
    - _Glossiness: 0.681
    - _InOut: 0.5
    - _Inside: 0.78
    - _InvFade: 1
    - _Metallic: 0
    - _Mode: 0
    - _OcclusionStrength: 1
    - _Offset: 44
    - _OutLineSpread: 0.00755
    - _Parallax: 0.02
    - _RandomPos: 0.567
    - _Shininess: 0.3
    - _Size: 0.669
    - _Speed: 0.528
    - _SrcBlend: 1
    - _UVSec: 0
    - _Value1: 0.26
    - _Value2: 1
    - _Value3: 0.307
    - _Value4: 0
    - _Value5: 0.504
    - _WaveAmplitude: 1
    - _WaveFrequency: 0.5
    - _ZWrite: 1
    - _offset: 1
    - strength: 0.2
    - transparency: 0.05
    m_Colors:
    - Lightcolor: {r: 1, g: 1, b: 1, a: 1}
    - _Color: {r: 1, g: 1, b: 1, a: 1}
    - _ColorX: {r: 1, g: 1, b: 1, a: 1}
    - _EmissionColor: {r: 0, g: 0.66896534, b: 1, a: 1}
    - _SpecColor: {r: 0.5, g: 0.5, b: 0.5, a: 1}
    - _TintColor: {r: 0.5514706, g: 0.5514706, b: 0.5514706, a: 0.459}
