%YAML 1.1
%TAG !u! tag:unity3d.com,2011:
--- !u!29 &1
OcclusionCullingSettings:
  m_ObjectHideFlags: 0
  serializedVersion: 2
  m_OcclusionBakeSettings:
    smallestOccluder: 5
    smallestHole: 0.25
    backfaceThreshold: 100
  m_SceneGUID: 00000000000000000000000000000000
  m_OcclusionCullingData: {fileID: 0}
--- !u!104 &2
RenderSettings:
  m_ObjectHideFlags: 0
  serializedVersion: 8
  m_Fog: 0
  m_FogColor: {r: 0.5, g: 0.5, b: 0.5, a: 1}
  m_FogMode: 3
  m_FogDensity: 0.01
  m_LinearFogStart: 0
  m_LinearFogEnd: 300
  m_AmbientSkyColor: {r: 0.212, g: 0.227, b: 0.259, a: 1}
  m_AmbientEquatorColor: {r: 0.114, g: 0.125, b: 0.133, a: 1}
  m_AmbientGroundColor: {r: 0.047, g: 0.043, b: 0.035, a: 1}
  m_AmbientIntensity: 1
  m_AmbientMode: 3
  m_SubtractiveShadowColor: {r: 0.42, g: 0.478, b: 0.627, a: 1}
  m_SkyboxMaterial: {fileID: 0}
  m_HaloStrength: 0.5
  m_FlareStrength: 1
  m_FlareFadeSpeed: 3
  m_HaloTexture: {fileID: 0}
  m_SpotCookie: {fileID: 10001, guid: 0000000000000000e000000000000000, type: 0}
  m_DefaultReflectionMode: 0
  m_DefaultReflectionResolution: 128
  m_ReflectionBounces: 1
  m_ReflectionIntensity: 1
  m_CustomReflection: {fileID: 0}
  m_Sun: {fileID: 0}
  m_IndirectSpecularColor: {r: 0, g: 0, b: 0, a: 1}
--- !u!157 &4
LightmapSettings:
  m_ObjectHideFlags: 0
  serializedVersion: 11
  m_GIWorkflowMode: 1
  m_GISettings:
    serializedVersion: 2
    m_BounceScale: 1
    m_IndirectOutputScale: 1
    m_AlbedoBoost: 1
    m_TemporalCoherenceThreshold: 1
    m_EnvironmentLightingMode: 0
    m_EnableBakedLightmaps: 0
    m_EnableRealtimeLightmaps: 0
  m_LightmapEditorSettings:
    serializedVersion: 9
    m_Resolution: 2
    m_BakeResolution: 40
    m_TextureWidth: 1024
    m_TextureHeight: 1024
    m_AO: 0
    m_AOMaxDistance: 1
    m_CompAOExponent: 0
    m_CompAOExponentDirect: 0
    m_Padding: 2
    m_LightmapParameters: {fileID: 0}
    m_LightmapsBakeMode: 1
    m_TextureCompression: 1
    m_FinalGather: 0
    m_FinalGatherFiltering: 1
    m_FinalGatherRayCount: 1024
    m_ReflectionCompression: 2
    m_MixedBakeMode: 1
    m_BakeBackend: 0
    m_PVRSampling: 1
    m_PVRDirectSampleCount: 32
    m_PVRSampleCount: 500
    m_PVRBounces: 2
    m_PVRFilterTypeDirect: 0
    m_PVRFilterTypeIndirect: 0
    m_PVRFilterTypeAO: 0
    m_PVRFilteringMode: 1
    m_PVRCulling: 1
    m_PVRFilteringGaussRadiusDirect: 1
    m_PVRFilteringGaussRadiusIndirect: 5
    m_PVRFilteringGaussRadiusAO: 2
    m_PVRFilteringAtrousPositionSigmaDirect: 0.5
    m_PVRFilteringAtrousPositionSigmaIndirect: 2
    m_PVRFilteringAtrousPositionSigmaAO: 1
  m_LightingDataAsset: {fileID: 0}
  m_UseShadowmask: 1
--- !u!196 &5
NavMeshSettings:
  serializedVersion: 2
  m_ObjectHideFlags: 0
  m_BuildSettings:
    serializedVersion: 2
    agentTypeID: 0
    agentRadius: 0.5
    agentHeight: 2
    agentSlope: 45
    agentClimb: 0.4
    ledgeDropHeight: 0
    maxJumpAcrossDistance: 0
    minRegionArea: 2
    manualCellSize: 0
    cellSize: 0.16666667
    manualTileSize: 0
    tileSize: 256
    accuratePlacement: 0
    debug:
      m_Flags: 0
  m_NavMeshData: {fileID: 0}
--- !u!1 &7140433
GameObject:
  m_ObjectHideFlags: 0
  m_PrefabParentObject: {fileID: 0}
  m_PrefabInternal: {fileID: 0}
  serializedVersion: 5
  m_Component:
  - component: {fileID: 7140438}
  - component: {fileID: 7140437}
  - component: {fileID: 7140436}
  - component: {fileID: 7140435}
  - component: {fileID: 7140434}
  m_Layer: 0
  m_Name: Main Camera
  m_TagString: MainCamera
  m_Icon: {fileID: 0}
  m_NavMeshLayer: 0
  m_StaticEditorFlags: 0
  m_IsActive: 1
--- !u!81 &7140434
AudioListener:
  m_ObjectHideFlags: 0
  m_PrefabParentObject: {fileID: 0}
  m_PrefabInternal: {fileID: 0}
  m_GameObject: {fileID: 7140433}
  m_Enabled: 1
--- !u!124 &7140435
Behaviour:
  m_ObjectHideFlags: 0
  m_PrefabParentObject: {fileID: 0}
  m_PrefabInternal: {fileID: 0}
  m_GameObject: {fileID: 7140433}
  m_Enabled: 1
--- !u!92 &7140436
Behaviour:
  m_ObjectHideFlags: 0
  m_PrefabParentObject: {fileID: 0}
  m_PrefabInternal: {fileID: 0}
  m_GameObject: {fileID: 7140433}
  m_Enabled: 1
--- !u!20 &7140437
Camera:
  m_ObjectHideFlags: 0
  m_PrefabParentObject: {fileID: 0}
  m_PrefabInternal: {fileID: 0}
  m_GameObject: {fileID: 7140433}
  m_Enabled: 1
  serializedVersion: 2
  m_ClearFlags: 1
  m_BackGroundColor: {r: 0.17254902, g: 0.23529413, b: 0.27450982, a: 0.019607844}
  m_NormalizedViewPortRect:
    serializedVersion: 2
    x: 0
    y: 0
    width: 1
    height: 1
  near clip plane: 0.3
  far clip plane: 1000
  field of view: 60
  orthographic: 1
  orthographic size: 7.8
  m_Depth: -1
  m_CullingMask:
    serializedVersion: 2
    m_Bits: 4294967295
  m_RenderingPath: -1
  m_TargetTexture: {fileID: 0}
  m_TargetDisplay: 0
  m_TargetEye: 3
  m_HDR: 0
  m_AllowMSAA: 1
  m_ForceIntoRT: 0
  m_OcclusionCulling: 1
  m_StereoConvergence: 10
  m_StereoSeparation: 0.022
--- !u!4 &7140438
Transform:
  m_ObjectHideFlags: 0
  m_PrefabParentObject: {fileID: 0}
  m_PrefabInternal: {fileID: 0}
  m_GameObject: {fileID: 7140433}
  m_LocalRotation: {x: 0, y: 0, z: 0, w: 1}
  m_LocalPosition: {x: 2.32, y: 3.97, z: -10.28}
  m_LocalScale: {x: 1, y: 1, z: 1}
  m_Children: []
  m_Father: {fileID: 0}
  m_RootOrder: 0
  m_LocalEulerAnglesHint: {x: 0, y: 0, z: 0}
--- !u!1001 &160452425
Prefab:
  m_ObjectHideFlags: 0
  serializedVersion: 2
  m_Modification:
    m_TransformParent: {fileID: 0}
    m_Modifications:
    - target: {fileID: 456712, guid: 299f97bf5959d4d4ca5c8474a0a2ac1e, type: 2}
      propertyPath: m_LocalPosition.x
      value: 4.27
      objectReference: {fileID: 0}
    - target: {fileID: 456712, guid: 299f97bf5959d4d4ca5c8474a0a2ac1e, type: 2}
      propertyPath: m_LocalPosition.y
      value: 10.8
      objectReference: {fileID: 0}
    - target: {fileID: 456712, guid: 299f97bf5959d4d4ca5c8474a0a2ac1e, type: 2}
      propertyPath: m_LocalPosition.z
      value: 0
      objectReference: {fileID: 0}
    - target: {fileID: 456712, guid: 299f97bf5959d4d4ca5c8474a0a2ac1e, type: 2}
      propertyPath: m_LocalRotation.x
      value: 0
      objectReference: {fileID: 0}
    - target: {fileID: 456712, guid: 299f97bf5959d4d4ca5c8474a0a2ac1e, type: 2}
      propertyPath: m_LocalRotation.y
      value: 0
      objectReference: {fileID: 0}
    - target: {fileID: 456712, guid: 299f97bf5959d4d4ca5c8474a0a2ac1e, type: 2}
      propertyPath: m_LocalRotation.z
      value: 0
      objectReference: {fileID: 0}
    - target: {fileID: 456712, guid: 299f97bf5959d4d4ca5c8474a0a2ac1e, type: 2}
      propertyPath: m_LocalRotation.w
      value: 1
      objectReference: {fileID: 0}
    - target: {fileID: 456712, guid: 299f97bf5959d4d4ca5c8474a0a2ac1e, type: 2}
      propertyPath: m_RootOrder
      value: 10
      objectReference: {fileID: 0}
    - target: {fileID: 152392, guid: 299f97bf5959d4d4ca5c8474a0a2ac1e, type: 2}
      propertyPath: m_Name
      value: ZippyWater2D Beach Ball
      objectReference: {fileID: 0}
    - target: {fileID: 456712, guid: 299f97bf5959d4d4ca5c8474a0a2ac1e, type: 2}
      propertyPath: m_LocalScale.x
      value: 0.2753162
      objectReference: {fileID: 0}
    - target: {fileID: 456712, guid: 299f97bf5959d4d4ca5c8474a0a2ac1e, type: 2}
      propertyPath: m_LocalScale.y
      value: 0.27531615
      objectReference: {fileID: 0}
    - target: {fileID: 456712, guid: 299f97bf5959d4d4ca5c8474a0a2ac1e, type: 2}
      propertyPath: m_LocalScale.z
      value: 0.27531615
      objectReference: {fileID: 0}
    - target: {fileID: 5044862, guid: 299f97bf5959d4d4ca5c8474a0a2ac1e, type: 2}
      propertyPath: m_Mass
      value: 0.4
      objectReference: {fileID: 0}
    - target: {fileID: 152392, guid: 299f97bf5959d4d4ca5c8474a0a2ac1e, type: 2}
      propertyPath: m_IsActive
      value: 1
      objectReference: {fileID: 0}
    - target: {fileID: 11442516, guid: 299f97bf5959d4d4ca5c8474a0a2ac1e, type: 2}
      propertyPath: m_Enabled
      value: 1
      objectReference: {fileID: 0}
    m_RemovedComponents: []
  m_ParentPrefab: {fileID: 100100000, guid: 299f97bf5959d4d4ca5c8474a0a2ac1e, type: 2}
  m_IsPrefabParent: 0
--- !u!1001 &182105630
Prefab:
  m_ObjectHideFlags: 0
  serializedVersion: 2
  m_Modification:
    m_TransformParent: {fileID: 0}
    m_Modifications:
    - target: {fileID: 456712, guid: 299f97bf5959d4d4ca5c8474a0a2ac1e, type: 2}
      propertyPath: m_LocalPosition.x
      value: -0.13
      objectReference: {fileID: 0}
    - target: {fileID: 456712, guid: 299f97bf5959d4d4ca5c8474a0a2ac1e, type: 2}
      propertyPath: m_LocalPosition.y
      value: 9.62
      objectReference: {fileID: 0}
    - target: {fileID: 456712, guid: 299f97bf5959d4d4ca5c8474a0a2ac1e, type: 2}
      propertyPath: m_LocalPosition.z
      value: 0
      objectReference: {fileID: 0}
    - target: {fileID: 456712, guid: 299f97bf5959d4d4ca5c8474a0a2ac1e, type: 2}
      propertyPath: m_LocalRotation.x
      value: 0
      objectReference: {fileID: 0}
    - target: {fileID: 456712, guid: 299f97bf5959d4d4ca5c8474a0a2ac1e, type: 2}
      propertyPath: m_LocalRotation.y
      value: 0
      objectReference: {fileID: 0}
    - target: {fileID: 456712, guid: 299f97bf5959d4d4ca5c8474a0a2ac1e, type: 2}
      propertyPath: m_LocalRotation.z
      value: 0
      objectReference: {fileID: 0}
    - target: {fileID: 456712, guid: 299f97bf5959d4d4ca5c8474a0a2ac1e, type: 2}
      propertyPath: m_LocalRotation.w
      value: 1
      objectReference: {fileID: 0}
    - target: {fileID: 456712, guid: 299f97bf5959d4d4ca5c8474a0a2ac1e, type: 2}
      propertyPath: m_RootOrder
      value: 7
      objectReference: {fileID: 0}
    - target: {fileID: 152392, guid: 299f97bf5959d4d4ca5c8474a0a2ac1e, type: 2}
      propertyPath: m_Name
      value: ZippyWater2D Beach Ball
      objectReference: {fileID: 0}
    - target: {fileID: 456712, guid: 299f97bf5959d4d4ca5c8474a0a2ac1e, type: 2}
      propertyPath: m_LocalScale.x
      value: 0.20383063
      objectReference: {fileID: 0}
    - target: {fileID: 456712, guid: 299f97bf5959d4d4ca5c8474a0a2ac1e, type: 2}
      propertyPath: m_LocalScale.y
      value: 0.20383061
      objectReference: {fileID: 0}
    - target: {fileID: 456712, guid: 299f97bf5959d4d4ca5c8474a0a2ac1e, type: 2}
      propertyPath: m_LocalScale.z
      value: 0.20383061
      objectReference: {fileID: 0}
    - target: {fileID: 5044862, guid: 299f97bf5959d4d4ca5c8474a0a2ac1e, type: 2}
      propertyPath: m_Mass
      value: 0.4
      objectReference: {fileID: 0}
    - target: {fileID: 152392, guid: 299f97bf5959d4d4ca5c8474a0a2ac1e, type: 2}
      propertyPath: m_IsActive
      value: 1
      objectReference: {fileID: 0}
    - target: {fileID: 11442516, guid: 299f97bf5959d4d4ca5c8474a0a2ac1e, type: 2}
      propertyPath: m_Enabled
      value: 1
      objectReference: {fileID: 0}
    m_RemovedComponents: []
  m_ParentPrefab: {fileID: 100100000, guid: 299f97bf5959d4d4ca5c8474a0a2ac1e, type: 2}
  m_IsPrefabParent: 0
--- !u!1001 &536361152
Prefab:
  m_ObjectHideFlags: 0
  serializedVersion: 2
  m_Modification:
    m_TransformParent: {fileID: 0}
    m_Modifications:
    - target: {fileID: 484454, guid: a74d992bdeea62a42875fdba418bdd84, type: 2}
      propertyPath: m_LocalPosition.x
      value: 0
      objectReference: {fileID: 0}
    - target: {fileID: 484454, guid: a74d992bdeea62a42875fdba418bdd84, type: 2}
      propertyPath: m_LocalPosition.y
      value: 2.67
      objectReference: {fileID: 0}
    - target: {fileID: 484454, guid: a74d992bdeea62a42875fdba418bdd84, type: 2}
      propertyPath: m_LocalPosition.z
      value: 0
      objectReference: {fileID: 0}
    - target: {fileID: 484454, guid: a74d992bdeea62a42875fdba418bdd84, type: 2}
      propertyPath: m_LocalRotation.x
      value: 0
      objectReference: {fileID: 0}
    - target: {fileID: 484454, guid: a74d992bdeea62a42875fdba418bdd84, type: 2}
      propertyPath: m_LocalRotation.y
      value: 0
      objectReference: {fileID: 0}
    - target: {fileID: 484454, guid: a74d992bdeea62a42875fdba418bdd84, type: 2}
      propertyPath: m_LocalRotation.z
      value: 0
      objectReference: {fileID: 0}
    - target: {fileID: 484454, guid: a74d992bdeea62a42875fdba418bdd84, type: 2}
      propertyPath: m_LocalRotation.w
      value: 1
      objectReference: {fileID: 0}
    - target: {fileID: 484454, guid: a74d992bdeea62a42875fdba418bdd84, type: 2}
      propertyPath: m_RootOrder
      value: 21
      objectReference: {fileID: 0}
    m_RemovedComponents: []
  m_ParentPrefab: {fileID: 100100000, guid: a74d992bdeea62a42875fdba418bdd84, type: 2}
  m_IsPrefabParent: 0
--- !u!1001 &807230780
Prefab:
  m_ObjectHideFlags: 0
  serializedVersion: 2
  m_Modification:
    m_TransformParent: {fileID: 0}
    m_Modifications:
    - target: {fileID: 477146, guid: 2498cdd8e37e27b44bcc31c68297daca, type: 2}
      propertyPath: m_LocalPosition.x
      value: -11.11
      objectReference: {fileID: 0}
    - target: {fileID: 477146, guid: 2498cdd8e37e27b44bcc31c68297daca, type: 2}
      propertyPath: m_LocalPosition.y
      value: 1.23
      objectReference: {fileID: 0}
    - target: {fileID: 477146, guid: 2498cdd8e37e27b44bcc31c68297daca, type: 2}
      propertyPath: m_LocalPosition.z
      value: 0
      objectReference: {fileID: 0}
    - target: {fileID: 477146, guid: 2498cdd8e37e27b44bcc31c68297daca, type: 2}
      propertyPath: m_LocalRotation.x
      value: 0
      objectReference: {fileID: 0}
    - target: {fileID: 477146, guid: 2498cdd8e37e27b44bcc31c68297daca, type: 2}
      propertyPath: m_LocalRotation.y
      value: 0
      objectReference: {fileID: 0}
    - target: {fileID: 477146, guid: 2498cdd8e37e27b44bcc31c68297daca, type: 2}
      propertyPath: m_LocalRotation.z
      value: 0
      objectReference: {fileID: 0}
    - target: {fileID: 477146, guid: 2498cdd8e37e27b44bcc31c68297daca, type: 2}
      propertyPath: m_LocalRotation.w
      value: 1
      objectReference: {fileID: 0}
    - target: {fileID: 477146, guid: 2498cdd8e37e27b44bcc31c68297daca, type: 2}
      propertyPath: m_RootOrder
      value: 1
      objectReference: {fileID: 0}
    m_RemovedComponents: []
  m_ParentPrefab: {fileID: 100100000, guid: 2498cdd8e37e27b44bcc31c68297daca, type: 2}
  m_IsPrefabParent: 0
--- !u!1001 &857651749
Prefab:
  m_ObjectHideFlags: 0
  serializedVersion: 2
  m_Modification:
    m_TransformParent: {fileID: 0}
    m_Modifications:
    - target: {fileID: 479942, guid: dc01cb6c9aa0e8e4c9739c8a964c6847, type: 2}
      propertyPath: m_LocalPosition.x
      value: 0
      objectReference: {fileID: 0}
    - target: {fileID: 479942, guid: dc01cb6c9aa0e8e4c9739c8a964c6847, type: 2}
      propertyPath: m_LocalPosition.y
      value: 0
      objectReference: {fileID: 0}
    - target: {fileID: 479942, guid: dc01cb6c9aa0e8e4c9739c8a964c6847, type: 2}
      propertyPath: m_LocalPosition.z
      value: 0
      objectReference: {fileID: 0}
    - target: {fileID: 479942, guid: dc01cb6c9aa0e8e4c9739c8a964c6847, type: 2}
      propertyPath: m_LocalRotation.x
      value: 0
      objectReference: {fileID: 0}
    - target: {fileID: 479942, guid: dc01cb6c9aa0e8e4c9739c8a964c6847, type: 2}
      propertyPath: m_LocalRotation.y
      value: 0
      objectReference: {fileID: 0}
    - target: {fileID: 479942, guid: dc01cb6c9aa0e8e4c9739c8a964c6847, type: 2}
      propertyPath: m_LocalRotation.z
      value: 0
      objectReference: {fileID: 0}
    - target: {fileID: 479942, guid: dc01cb6c9aa0e8e4c9739c8a964c6847, type: 2}
      propertyPath: m_LocalRotation.w
      value: 1
      objectReference: {fileID: 0}
    - target: {fileID: 479942, guid: dc01cb6c9aa0e8e4c9739c8a964c6847, type: 2}
      propertyPath: m_RootOrder
      value: 11
      objectReference: {fileID: 0}
    m_RemovedComponents: []
  m_ParentPrefab: {fileID: 100100000, guid: dc01cb6c9aa0e8e4c9739c8a964c6847, type: 2}
  m_IsPrefabParent: 0
--- !u!1001 &1793498040
Prefab:
  m_ObjectHideFlags: 0
  serializedVersion: 2
  m_Modification:
    m_TransformParent: {fileID: 0}
    m_Modifications:
    - target: {fileID: 440124, guid: 984a45f50fd28f542b07817f5b427849, type: 2}
      propertyPath: m_LocalPosition.x
      value: 2.18
      objectReference: {fileID: 0}
    - target: {fileID: 440124, guid: 984a45f50fd28f542b07817f5b427849, type: 2}
      propertyPath: m_LocalPosition.y
      value: 4.08
      objectReference: {fileID: 0}
    - target: {fileID: 440124, guid: 984a45f50fd28f542b07817f5b427849, type: 2}
      propertyPath: m_LocalPosition.z
      value: 0
      objectReference: {fileID: 0}
    - target: {fileID: 440124, guid: 984a45f50fd28f542b07817f5b427849, type: 2}
      propertyPath: m_LocalRotation.x
      value: 0
      objectReference: {fileID: 0}
    - target: {fileID: 440124, guid: 984a45f50fd28f542b07817f5b427849, type: 2}
      propertyPath: m_LocalRotation.y
      value: 0
      objectReference: {fileID: 0}
    - target: {fileID: 440124, guid: 984a45f50fd28f542b07817f5b427849, type: 2}
      propertyPath: m_LocalRotation.z
      value: 0
      objectReference: {fileID: 0}
    - target: {fileID: 440124, guid: 984a45f50fd28f542b07817f5b427849, type: 2}
      propertyPath: m_LocalRotation.w
      value: 1
      objectReference: {fileID: 0}
    - target: {fileID: 440124, guid: 984a45f50fd28f542b07817f5b427849, type: 2}
      propertyPath: m_RootOrder
      value: 10
      objectReference: {fileID: 0}
    m_RemovedComponents: []
  m_ParentPrefab: {fileID: 100100000, guid: 984a45f50fd28f542b07817f5b427849, type: 2}
  m_IsPrefabParent: 0
--- !u!1001 &1802311246
Prefab:
  m_ObjectHideFlags: 0
  serializedVersion: 2
  m_Modification:
    m_TransformParent: {fileID: 0}
    m_Modifications:
    - target: {fileID: 456712, guid: 299f97bf5959d4d4ca5c8474a0a2ac1e, type: 2}
      propertyPath: m_LocalPosition.x
      value: -3.94
      objectReference: {fileID: 0}
    - target: {fileID: 456712, guid: 299f97bf5959d4d4ca5c8474a0a2ac1e, type: 2}
      propertyPath: m_LocalPosition.y
      value: 6.75
      objectReference: {fileID: 0}
    - target: {fileID: 456712, guid: 299f97bf5959d4d4ca5c8474a0a2ac1e, type: 2}
      propertyPath: m_LocalPosition.z
      value: 0
      objectReference: {fileID: 0}
    - target: {fileID: 456712, guid: 299f97bf5959d4d4ca5c8474a0a2ac1e, type: 2}
      propertyPath: m_LocalRotation.x
      value: 0
      objectReference: {fileID: 0}
    - target: {fileID: 456712, guid: 299f97bf5959d4d4ca5c8474a0a2ac1e, type: 2}
      propertyPath: m_LocalRotation.y
      value: 0
      objectReference: {fileID: 0}
    - target: {fileID: 456712, guid: 299f97bf5959d4d4ca5c8474a0a2ac1e, type: 2}
      propertyPath: m_LocalRotation.z
      value: 0
      objectReference: {fileID: 0}
    - target: {fileID: 456712, guid: 299f97bf5959d4d4ca5c8474a0a2ac1e, type: 2}
      propertyPath: m_LocalRotation.w
      value: 1
      objectReference: {fileID: 0}
    - target: {fileID: 456712, guid: 299f97bf5959d4d4ca5c8474a0a2ac1e, type: 2}
      propertyPath: m_RootOrder
      value: 6
      objectReference: {fileID: 0}
    - target: {fileID: 152392, guid: 299f97bf5959d4d4ca5c8474a0a2ac1e, type: 2}
      propertyPath: m_Name
      value: ZippyWater2D Beach Ball
      objectReference: {fileID: 0}
    - target: {fileID: 456712, guid: 299f97bf5959d4d4ca5c8474a0a2ac1e, type: 2}
      propertyPath: m_LocalScale.x
      value: 0.60210365
      objectReference: {fileID: 0}
    - target: {fileID: 456712, guid: 299f97bf5959d4d4ca5c8474a0a2ac1e, type: 2}
      propertyPath: m_LocalScale.y
      value: 0.60210335
      objectReference: {fileID: 0}
    - target: {fileID: 456712, guid: 299f97bf5959d4d4ca5c8474a0a2ac1e, type: 2}
      propertyPath: m_LocalScale.z
      value: 0.60210335
      objectReference: {fileID: 0}
    - target: {fileID: 152392, guid: 299f97bf5959d4d4ca5c8474a0a2ac1e, type: 2}
      propertyPath: m_IsActive
      value: 1
      objectReference: {fileID: 0}
    - target: {fileID: 11442516, guid: 299f97bf5959d4d4ca5c8474a0a2ac1e, type: 2}
      propertyPath: m_Enabled
      value: 1
      objectReference: {fileID: 0}
    - target: {fileID: 5044862, guid: 299f97bf5959d4d4ca5c8474a0a2ac1e, type: 2}
      propertyPath: m_Mass
      value: 0.4
      objectReference: {fileID: 0}
    m_RemovedComponents: []
  m_ParentPrefab: {fileID: 100100000, guid: 299f97bf5959d4d4ca5c8474a0a2ac1e, type: 2}
  m_IsPrefabParent: 0
--- !u!1001 &1912032927
Prefab:
  m_ObjectHideFlags: 0
  serializedVersion: 2
  m_Modification:
    m_TransformParent: {fileID: 0}
    m_Modifications:
    - target: {fileID: 456712, guid: 299f97bf5959d4d4ca5c8474a0a2ac1e, type: 2}
      propertyPath: m_LocalPosition.x
      value: 7.99
      objectReference: {fileID: 0}
    - target: {fileID: 456712, guid: 299f97bf5959d4d4ca5c8474a0a2ac1e, type: 2}
      propertyPath: m_LocalPosition.y
      value: 8.28
      objectReference: {fileID: 0}
    - target: {fileID: 456712, guid: 299f97bf5959d4d4ca5c8474a0a2ac1e, type: 2}
      propertyPath: m_LocalPosition.z
      value: 0
      objectReference: {fileID: 0}
    - target: {fileID: 456712, guid: 299f97bf5959d4d4ca5c8474a0a2ac1e, type: 2}
      propertyPath: m_LocalRotation.x
      value: 0
      objectReference: {fileID: 0}
    - target: {fileID: 456712, guid: 299f97bf5959d4d4ca5c8474a0a2ac1e, type: 2}
      propertyPath: m_LocalRotation.y
      value: 0
      objectReference: {fileID: 0}
    - target: {fileID: 456712, guid: 299f97bf5959d4d4ca5c8474a0a2ac1e, type: 2}
      propertyPath: m_LocalRotation.z
      value: 0
      objectReference: {fileID: 0}
    - target: {fileID: 456712, guid: 299f97bf5959d4d4ca5c8474a0a2ac1e, type: 2}
      propertyPath: m_LocalRotation.w
      value: 1
      objectReference: {fileID: 0}
    - target: {fileID: 456712, guid: 299f97bf5959d4d4ca5c8474a0a2ac1e, type: 2}
      propertyPath: m_RootOrder
      value: 5
      objectReference: {fileID: 0}
    m_RemovedComponents: []
  m_ParentPrefab: {fileID: 100100000, guid: 299f97bf5959d4d4ca5c8474a0a2ac1e, type: 2}
  m_IsPrefabParent: 0
