%YAML 1.1
%TAG !u! tag:unity3d.com,2011:
--- !u!74 &7400000
AnimationClip:
  m_ObjectHideFlags: 0
  m_PrefabParentObject: {fileID: 0}
  m_PrefabInternal: {fileID: 0}
  m_Name: boss_walk
  serializedVersion: 6
  m_Legacy: 0
  m_Compressed: 0
  m_UseHighQualityCurve: 1
  m_RotationCurves: []
  m_CompressedRotationCurves: []
  m_EulerCurves: []
  m_PositionCurves: []
  m_ScaleCurves: []
  m_FloatCurves: []
  m_PPtrCurves:
  - curve:
    - time: 0
      value: {fileID: 21300000, guid: 5c946da308fd02b4aa150b8378455946, type: 3}
    - time: 0.083333336
      value: {fileID: 21300000, guid: 2c725ed76e5c69d459d32641e28fd354, type: 3}
    - time: 0.16666667
      value: {fileID: 21300000, guid: c38c341d6ebb2304c95a1f0de8ad3098, type: 3}
    - time: 0.25
      value: {fileID: 21300000, guid: 3ee0f40eb46aed044bd8cb8a7efe794a, type: 3}
    - time: 0.33333334
      value: {fileID: 21300000, guid: 4ef2335e406b094479fede974de86cc9, type: 3}
    - time: 0.41666666
      value: {fileID: 21300000, guid: 4861d88a93d032b4eaa1ac87ba1c3035, type: 3}
    - time: 0.5
      value: {fileID: 21300000, guid: 4d27bd30e495bff41a5d260c06ec4b82, type: 3}
    - time: 0.5833333
      value: {fileID: 21300000, guid: c2c5ef90d2f9d7e4784ef035322e3f02, type: 3}
    - time: 0.6666667
      value: {fileID: 21300000, guid: cb00591dd69e53a48bb80dd96d7f079e, type: 3}
    attribute: m_Sprite
    path: 
    classID: 212
    script: {fileID: 0}
  m_SampleRate: 12
  m_WrapMode: 0
  m_Bounds:
    m_Center: {x: 0, y: 0, z: 0}
    m_Extent: {x: 0, y: 0, z: 0}
  m_ClipBindingConstant:
    genericBindings:
    - serializedVersion: 2
      path: 0
      attribute: 0
      script: {fileID: 0}
      typeID: 212
      customType: 23
      isPPtrCurve: 1
    pptrCurveMapping:
    - {fileID: 21300000, guid: 5c946da308fd02b4aa150b8378455946, type: 3}
    - {fileID: 21300000, guid: 2c725ed76e5c69d459d32641e28fd354, type: 3}
    - {fileID: 21300000, guid: c38c341d6ebb2304c95a1f0de8ad3098, type: 3}
    - {fileID: 21300000, guid: 3ee0f40eb46aed044bd8cb8a7efe794a, type: 3}
    - {fileID: 21300000, guid: 4ef2335e406b094479fede974de86cc9, type: 3}
    - {fileID: 21300000, guid: 4861d88a93d032b4eaa1ac87ba1c3035, type: 3}
    - {fileID: 21300000, guid: 4d27bd30e495bff41a5d260c06ec4b82, type: 3}
    - {fileID: 21300000, guid: c2c5ef90d2f9d7e4784ef035322e3f02, type: 3}
    - {fileID: 21300000, guid: cb00591dd69e53a48bb80dd96d7f079e, type: 3}
  m_AnimationClipSettings:
    serializedVersion: 2
    m_AdditiveReferencePoseClip: {fileID: 0}
    m_AdditiveReferencePoseTime: 0
    m_StartTime: 0
    m_StopTime: 0.75
    m_OrientationOffsetY: 0
    m_Level: 0
    m_CycleOffset: 0
    m_HasAdditiveReferencePose: 0
    m_LoopTime: 1
    m_LoopBlend: 0
    m_LoopBlendOrientation: 0
    m_LoopBlendPositionY: 0
    m_LoopBlendPositionXZ: 0
    m_KeepOriginalOrientation: 0
    m_KeepOriginalPositionY: 1
    m_KeepOriginalPositionXZ: 0
    m_HeightFromFeet: 0
    m_Mirror: 0
  m_EditorCurves: []
  m_EulerEditorCurves: []
  m_HasGenericRootTransform: 0
  m_HasMotionFloatCurves: 0
  m_GenerateMotionCurves: 0
  m_Events: []
