%YAML 1.1
%TAG !u! tag:unity3d.com,2011:
--- !u!74 &7400000
AnimationClip:
  m_ObjectHideFlags: 0
  m_PrefabParentObject: {fileID: 0}
  m_PrefabInternal: {fileID: 0}
  m_Name: boss_attack
  serializedVersion: 6
  m_Legacy: 0
  m_Compressed: 0
  m_UseHighQualityCurve: 1
  m_RotationCurves: []
  m_CompressedRotationCurves: []
  m_EulerCurves: []
  m_PositionCurves: []
  m_ScaleCurves: []
  m_FloatCurves:
  - curve:
      serializedVersion: 2
      m_Curve:
      - serializedVersion: 2
        time: 0
        value: 0
        inSlope: Infinity
        outSlope: Infinity
        tangentMode: 103
      - serializedVersion: 2
        time: 0.6666667
        value: 1
        inSlope: Infinity
        outSlope: Infinity
        tangentMode: 103
      - serializedVersion: 2
        time: 0.9166667
        value: 0
        inSlope: Infinity
        outSlope: Infinity
        tangentMode: 103
      - serializedVersion: 2
        time: 1.6666666
        value: 0
        inSlope: Infinity
        outSlope: Infinity
        tangentMode: 103
      m_PreInfinity: 2
      m_PostInfinity: 2
      m_RotationOrder: 4
    attribute: m_Enabled
    path: MeleeAttackCollider
    classID: 61
    script: {fileID: 0}
  m_PPtrCurves:
  - curve:
    - time: 0
      value: {fileID: 21300000, guid: 6299edadb525a7546a6e3d62697a4efb, type: 3}
    - time: 0.083333336
      value: {fileID: 21300000, guid: bf6139de4cabad64895093609f891021, type: 3}
    - time: 0.16666667
      value: {fileID: 21300000, guid: 1ae0650ee3a9a8e4a83cc366ba89aec1, type: 3}
    - time: 0.6666667
      value: {fileID: 21300000, guid: 6afa22f326b2fde499f6a15fe929980a, type: 3}
    - time: 0.75
      value: {fileID: 21300000, guid: 024a5d622da94514cbd2888f14eda064, type: 3}
    - time: 0.8333333
      value: {fileID: 21300000, guid: bebcce820809aac42936663f5b832f4e, type: 3}
    - time: 0.9166667
      value: {fileID: 21300000, guid: d4c2a5f47cd7693489586072d4a76665, type: 3}
    - time: 1.6666666
      value: {fileID: 21300000, guid: d4c2a5f47cd7693489586072d4a76665, type: 3}
    attribute: m_Sprite
    path: 
    classID: 212
    script: {fileID: 0}
  m_SampleRate: 12
  m_WrapMode: 0
  m_Bounds:
    m_Center: {x: 0, y: 0, z: 0}
    m_Extent: {x: 0, y: 0, z: 0}
  m_ClipBindingConstant:
    genericBindings:
    - serializedVersion: 2
      path: 3575915373
      attribute: 3305885265
      script: {fileID: 0}
      typeID: 61
      customType: 0
      isPPtrCurve: 0
    - serializedVersion: 2
      path: 0
      attribute: 0
      script: {fileID: 0}
      typeID: 212
      customType: 23
      isPPtrCurve: 1
    pptrCurveMapping:
    - {fileID: 21300000, guid: 6299edadb525a7546a6e3d62697a4efb, type: 3}
    - {fileID: 21300000, guid: bf6139de4cabad64895093609f891021, type: 3}
    - {fileID: 21300000, guid: 1ae0650ee3a9a8e4a83cc366ba89aec1, type: 3}
    - {fileID: 21300000, guid: 6afa22f326b2fde499f6a15fe929980a, type: 3}
    - {fileID: 21300000, guid: 024a5d622da94514cbd2888f14eda064, type: 3}
    - {fileID: 21300000, guid: bebcce820809aac42936663f5b832f4e, type: 3}
    - {fileID: 21300000, guid: d4c2a5f47cd7693489586072d4a76665, type: 3}
    - {fileID: 21300000, guid: d4c2a5f47cd7693489586072d4a76665, type: 3}
  m_AnimationClipSettings:
    serializedVersion: 2
    m_AdditiveReferencePoseClip: {fileID: 0}
    m_AdditiveReferencePoseTime: 0
    m_StartTime: 0
    m_StopTime: 1.75
    m_OrientationOffsetY: 0
    m_Level: 0
    m_CycleOffset: 0
    m_HasAdditiveReferencePose: 0
    m_LoopTime: 1
    m_LoopBlend: 0
    m_LoopBlendOrientation: 0
    m_LoopBlendPositionY: 0
    m_LoopBlendPositionXZ: 0
    m_KeepOriginalOrientation: 0
    m_KeepOriginalPositionY: 1
    m_KeepOriginalPositionXZ: 0
    m_HeightFromFeet: 0
    m_Mirror: 0
  m_EditorCurves:
  - curve:
      serializedVersion: 2
      m_Curve:
      - serializedVersion: 2
        time: 0
        value: 0
        inSlope: Infinity
        outSlope: Infinity
        tangentMode: 103
      - serializedVersion: 2
        time: 0.6666667
        value: 1
        inSlope: Infinity
        outSlope: Infinity
        tangentMode: 103
      - serializedVersion: 2
        time: 0.9166667
        value: 0
        inSlope: Infinity
        outSlope: Infinity
        tangentMode: 103
      - serializedVersion: 2
        time: 1.6666666
        value: 0
        inSlope: Infinity
        outSlope: Infinity
        tangentMode: 103
      m_PreInfinity: 2
      m_PostInfinity: 2
      m_RotationOrder: 4
    attribute: m_Enabled
    path: MeleeAttackCollider
    classID: 61
    script: {fileID: 0}
  m_EulerEditorCurves: []
  m_HasGenericRootTransform: 0
  m_HasMotionFloatCurves: 0
  m_GenerateMotionCurves: 0
  m_Events: []
